dhsz 512 1.20466 1150pwhjnp 512 100237
epxvptrqic 8000 1.2074 5162kchxhsftanjkldqj 8000 112550
upbjeue 576 1.21455 4178blmrk 576 108245
tkhsayovqm 6208 1.22184 889llsvzfngu 6208 107349
ovaqkx 8128 1.22222 3367jqbdsdeuelwkxnvib 8128 128773
orwsvmouqgvp 3456 1.22254 9179mqnauwhewaouishlh 3456 123088
tsgcygwl 2816 1.22315 8956iyslrmktgbcgytstb 2816 101259
apmwcrguax 8640 1.2242 4434vcmrbyjjamnxxrtys 8640 110133
ydpzlavfs 8768 1.23144 8062wnpkyrdt 8768 114767
tukoyzggukkj 7296 1.23427 524slrru 7296 103297
episvmlcd 4608 1.23589 9677qgapjyredymklpxfw 4608 111197
keeisxtarlpn 2496 1.23748 1579tbuuoizpvuima 2496 126260
lghiog 128 1.23897 6085rrsur 128 120326
mdxxbbe 5120 1.24108 2454pnyddwssr 5120 112455
injcmvtsqln 9088 1.24222 9126dvuokepstjfh 9088 110208
wyuj 9216 1.24273 1814tzcmfedadlpgt 9216 101560
qpxtyxhjvoy 3137 1.20008 2966dasgspifhcdzkdi 3137 120972
xzscjmxcnthj 2305 1.20058 2041schword 2305 101489
zogcv 3649 1.20075 8317czamoiuuwigv 3649 118677
jiarmszavx 3201 1.20345 7705siretvxyqwghiiti 3201 102144
qwzwzne 3777 1.20735 6595ntlpkx 3777 102181
qmnguqsbyyso 3969 1.22355 9016yrxsstdohitusysw 3969 128970
ycbtnyghl 6913 1.22454 5678otmyg 6913 106231
zvueb 5633 1.22671 7032bskfntvjgksoapgt 5633 108867
gnuxq 7489 1.22999 8709vmynjcw 7489 110471
wkvswz 4545 1.23462 7698hqiwmkftw 4545 110422
ndvdviilsu 1857 1.23524 1461ahmujc 1857 124773
guzvzbyqh 4097 1.24096 4148fntguyrhgkofu 4097 113371
qzgmmwftul 5889 1.2415 8834cwyvmhyxswac 5889 102074
ircijdyfun 1089 1.24663 7235voyoe 1089 102669
bepeiiojhnwvw 4098 1.20448 5479zxbhd 4098 110189
bpxrxhou 8194 1.20675 1821xgsspihfqwmkkwgc 8194 101003
byzmeojqkv 5122 1.20727 6809ndumprdajut 5122 107056
htjv 1026 1.21267 1632fvucxpuw 1026 100235
fqjlpsbnnizdi 5058 1.21447 2727spflhj 5058 102623
yrbzxpov 450 1.21543 9073mqlipuhmbbcq 450 100922
xmpxb 4930 1.22504 4817rfgtqtqgnenlqfxis 4930 104886
brvkttrjov 3970 1.22509 6856bbpnfagdzjylq 3970 114336
zdgklsshlx 4802 1.24123 7432hipqa 4802 107171
ietabzxnpifye 3778 1.24262 7725qezybxqznqtqj 3778 112295
cezrza 9730 1.24771 9564uzpzchesryjomiyv 9730 125880
akcvajdn 962 1.24963 3717qadumhwzut 962 106962
cxxszlnk 7683 1.2015 1650psszxf 7683 118086
iotenrmdijar 6339 1.20228 5075vyujwm 6339 127577
dwssdofdavp 2627 1.20334 9478rrblbwwea 2627 113597
zkgrc 6531 1.20972 6079bxkwrdtgsy 6531 108706
rmahkxduk 3779 1.211 1179qoxyenmuuuaqspnzz 3779 127037
fukvru 8323 1.21156 4646yfqfytdyolu 8323 111094
cnlriofgnt 6595 1.21429 5083pxisyrlvaxd 6595 100248
zdzq 8963 1.21463 4829dszlvdzdjtt 8963 116453
pbtbnwefttpus 7747 1.21575 5426ablutdda 7747 115006
itkvnqng 1027 1.21907 355congurtfroajf 1027 101002
yreehmw 8387 1.22876 8662pcul 8387 103221
rzzhoiatapgx 2371 1.23339 99ymksv 2371 108705
vmysxuysxzyv 2243 1.23936 3884ownwvhqrmefuog 2243 100188
dfcvekin 7427 1.23984 5582nnilk 7427 117982
qtbtvog 4099 1.24402 4441krctcozuu 4099 107997
ypbcrynkycdv 1219 1.24573 7559kqfpmdoypb 1219 122056
ypnfi 4803 1.24587 3829nyyujmkh 4803 101346
zxiotcycqcaw 3844 1.20824 7482orviinxnujizihu 3844 106336
gzxechglad 9604 1.21478 6232ywohwjtbuwyneaqsi 9604 101623
fxtwmef 6148 1.22568 1674jeml 6148 123327
pfahjnmllp 3076 1.22779 7815ipuomxpvjmagvcb 3076 127152
kwpzqtztqe 6724 1.23034 8311nrmmbw 6724 129733
lnktcjyxivnld 2052 1.23203 6142zmqqdvfkadw 2052 114962
zsppm 772 1.23408 6296piku 772 117641
fvbaair 9028 1.23442 5379slvexrmliobt 9028 111785
vheortzne 3716 1.23599 2318ioxf 3716 116499
pihb 2884 1.23837 4446buzfja 2884 108670
txugatpvp 900 1.242 5501tkqsojpesj 900 105249
eejytjbgmyja 8516 1.24577 9274qdvfkyiqoeboswt 8516 118281
umzzbrlkyj 580 1.24804 8524tsdcfguopghp 580 129356
cyruhdbgcab 8645 1.20453 4875sljvylcai 8645 128406
oojupakzfagmhc 5637 1.21287 7774uxpsn 5637 101570
rekwe 965 1.21404 6725ibulcnv 965 108360
szklcpgywh 6853 1.21525 5954wasrmmp 6853 129857
tuwukvbznlonnc 197 1.21877 346nxmfkpavqi 197 125128
uxdauhhznigefk 2053 1.22069 8128majlspeb 2053 124710
hkghaiforbfhl 3269 1.22073 7681rkjkhinmirqolble 3269 115333
idhjeddbzn 5765 1.22464 783zxgzv 5765 100300
ielcivocozll 9349 1.22701 8796anpylkogornnrsf 9349 121726
yzyv 1285 1.22788 9884spac 1285 128621
rudxjqnbewbc 2821 1.24069 1126nargvxxkuirnlz 2821 101460
qeqgwfyodiwpzl 1349 1.24275 8573ksugmbztftuaqffjp 1349 115441
grmrcbjnfpym 5893 1.24297 6097vhitteyh 5893 110324
lopwxepcer 2822 1.20346 4686kaqxbfyfy 2822 118786
wdrw 4422 1.21833 9778zrajo 4422 101363
ragpfcqbgffdc 7174 1.22181 1009efacaxydrdwbirfqf 7174 128180
zboedzjiwouv 5510 1.22528 4223xfvjktl 5510 127626
blkfbtkchndi 5254 1.22659 2508kwrqsfwclo 5254 109515
zqerx 262 1.22864 424njqmfmjnpcwrqnph 262 110273
nyrgttacoaoj 6150 1.23793 8820cvcheqvnuyrb 6150 107954
eldmqajprigcn 6278 1.24868 9259bnhtymwzty 6278 107137
lwjtipefbd 1543 1.20257 4139ffttqgojegdegm 1543 112529
gikjcbd 7047 1.21157 8068bcdccbkpcdfbhjvya 7047 124870
sklu 9799 1.21336 7793cjubinuinr 9799 103565
hrpmulzed 2759 1.22018 1693kwjomhnfynka 2759 110845
kjlavi 5383 1.2202 5555jlovvmvbjfauvcqv 5383 124618
mohpgrxsvxp 2695 1.2229 2249fdfzhqn 2695 118493
bwlhwzgddgqe 7687 1.22665 3211tigpq 7687 126857
pbbbblvuxann 9607 1.23627 3071kjhwupefusmyzl 9607 104715
cbrxnrtfvm 4807 1.23687 9079xjsdrsq 4807 117584
dgelrvlizn 2119 1.23834 3277xwpuwfkfrihsuqg 2119 113716
lcszypgz 5063 1.2436 2797trfbkeynpuqy 5063 101462
lenpil 2503 1.2462 8358tczjwfjca 2503 115145
vcuxwrnmjxbcb 3783 1.24721 9426qesxiletzkhtasw 3783 122678
afaje 1031 1.24856 2955xbfbvjfsywcheccss 1031 123199
ebyzj 7175 1.24877 4482lksqgveov 7175 116081
dogsxfutu 8200 1.20066 1695oogaogarovmoznby 8200 110844
dldfydrgnccjsz 5064 1.20615 2744bqfqcfdlwzduprf 5064 116657
otxlpvjibe 6408 1.20798 9846wywdcqeykypkzgr 6408 113817
mroiopyjsopga 5512 1.21051 4638ehvere 5512 118075
dqtqgjsz 1352 1.21302 5942kiswldl 1352 118166
ycispq 328 1.2192 7160vdaknjxetvvic 328 111599
lizie 7880 1.22074 2081svifvetmqrhkplcej 7880 121945
eabbfshxbks 6856 1.2247 2717dgsoeifzhagcssb 6856 125624
hlnwysok 9864 1.2371 4898ovpiopjapilw 9864 127649
dgcfkcsypfe 4680 1.23778 2891iywwiphca 4680 112079
vbrzt 9992 1.24048 9979excnncokx 9992 119199
xqdshonm 4936 1.24218 26mhyaggafyynwdu 4936 101048
sxlavgnhdrhnwg 8904 1.24571 7221sdvixqqarjifttnl 8904 110425
ohagu 4744 1.24623 5519pskaiupohjxoebci 4744 121228
wvffwttycwj 1288 1.24625 3032hijalrbbfb 1288 107611
tjnziglao 137 1.20591 8891lgota 137 114606
mnnytojfodv 9417 1.21262 1048ndwtngrhbtjme 9417 119917
gfiaa 3657 1.21335 4021jkkncd 3657 103396
vdhaqsnj 6985 1.21934 1769znzfmhhb 6985 106038
flvy 5833 1.22027 2574kspswmabzjdq 5833 118882
pcjomfirqkstw 1225 1.22538 2083rzhlybtfgoccb 1225 109578
fppivaxmet 4745 1.23309 8262czsiv 4745 102244
aysjxfypwiid 1993 1.23942 8728ndgwrhgofcijfh 1993 128470
gfidbxvjkddzg 7049 1.24191 3483iisuxzqlvdgv 7049 117780
tjnziglao 137 1.20591 8891lgota 137 114606
mnnytojfodv 9417 1.21262 1048ndwtngrhbtjme 9417 119917
gfiaa 3657 1.21335 4021jkkncd 3657 103396
vdhaqsnj 6985 1.21934 1769znzfmhhb 6985 106038
flvy 5833 1.22027 2574kspswmabzjdq 5833 118882
pcjomfirqkstw 1225 1.22538 2083rzhlybtfgoccb 1225 109578
fppivaxmet 4745 1.23309 8262czsiv 4745 102244
aysjxfypwiid 1993 1.23942 8728ndgwrhgofcijfh 1993 128470
gfidbxvjkddzg 7049 1.24191 3483iisuxzqlvdgv 7049 117780
tikw 1290 1.20802 6063ntrw 1290 126737
qmgeejashmlnyl 1354 1.21462 6573xucelbxbm 1354 126255
opbdrtcyofa 3402 1.21665 5983zmdfpps 3402 100144
qqmkzegxxti 522 1.2221 7684hnrwez 522 118958
kcwlbgiq 2634 1.223 2795mgpboa 2634 129657
ljsbzppbycrkg 2378 1.22516 8963ddslzvainljgdp 2378 126787
bszmwbqlmvycch 3850 1.23664 8184fleqtsr 3850 121318
hewztyal 2890 1.23829 6869uflo 2890 125134
hempq 907 1.20171 5824scluhbz 907 121005
mchfobuiiagt 8267 1.20274 8762wdxafedkbdge 8267 123986
nsqnis 7819 1.20475 3194wxtfqm 7819 126386
uhnuryxk 3019 1.2078 7347rxmezemtemev 3019 126134
gvwvkgxmzm 9739 1.20958 8225gkwqxyoyvvn 9739 103584
jljnjjymrwshh 8587 1.21264 9755bxkogeg 8587 125518
skrnwfhxitknsj 4427 1.21655 8687sdcxxr 4427 113338
cubnktc 5451 1.21671 4175uetmfqwbvogclbn 5451 106135
tmptmwycqp 5643 1.21718 7973qsdvycjjqsdqt 5643 109561
ymsrwqgpu 4107 1.22677 4703ukema 4107 108729
fljald 8459 1.2298 600qitauzaxgfrbwykn 8459 102701
tfukg 4043 1.2319 3360jmezipgieb 4043 101475
qbtnbo 2123 1.23932 6822urmvxgmdusodptpvj 2123 123165
eettlzaasi 5195 1.24163 1367jkiwxsoc 5195 125836
klpqdj 3211 1.24326 1766wxvnc 3211 122129
pxkpiqvlh 8396 1.20082 8816ikts 8396 119522
wryvvewc 5196 1.20987 9451dvwbrvublhnapqtu 5196 113590
begk 6284 1.21003 1733crmdkffooobau 6284 127892
kxjpvxafokjc 4620 1.21351 340zizccuxspzdgmch 4620 101052
dytgsqttchm 9036 1.21416 5708zwsgungbdgje 9036 119410
divfknvpc 5132 1.21835 4638pbalwahktfauxmn 5132 118467
xnpkgzxvrz 3020 1.22134 8826gjueptz 3020 113793
wseaegiyuxl 2252 1.22294 6746hlbljwdouoqkcqa 2252 100349
dcnklpaeh 7692 1.22719 7345zbmcv 7692 101908
lgsjxkplq 8908 1.22878 9479zmsvibwcywuoe 8908 128134
xntgpjdmcsdfr 2060 1.23248 8239omoemeuhzkltowneh 2060 124696
nzws 8012 1.23792 3187wtsklapusmd 8012 111381
mevnobs 9420 1.24452 9098gcbaowu 9420 110322
byrwgg 3980 1.24612 7018epkzgalnzoce 3980 114550
iiyhc 1164 1.2468 8476btfllqodkvtqidqns 1164 117615
ipaol 2444 1.24973 2473trsaxuyae 2444 107240
abxmqctglieup 9805 1.20325 4167nqwudq 9805 125318
cycsvxkdkpku 7309 1.20362 9620dmfcfewryb 7309 125770
aaqx 4237 1.20704 8815jkqldl 4237 105769
waoykhfcal 781 1.21122 8313muuxn 781 118651
iefakgraicvr 4365 1.22029 1557vdmpdwwth 4365 116036
gyobtsungp 4877 1.22141 7232nlymw 4877 129313
euafuzsrau 5517 1.22196 9468ujbki 5517 101174
psojjx 7693 1.22674 5410xzytn 7693 101255
bbbvs 1613 1.23689 9976zmtybicmchmjhf 1613 107887
zttd 2189 1.24286 4513uqudhbrspdy 2189 100842
yafcad 8718 1.20495 1054fajhyiq 8718 105154
uuaqlzqxrq 1998 1.20499 6233lnmbf 1998 121313
nfocyllibtnd 3470 1.20642 7375lvaowsiejqw 3470 125893
fvhxnvlkssv 3662 1.21091 2602tmqsjzlk 3662 128878
ardmfmcyv 6990 1.22745 6769hcspiapolbjxpd 6990 114688
dszulngwg 1422 1.23376 6417vhzxxqir 1422 101150
geoeppdkm 846 1.23392 5130kjmrf 846 114736
nemjrv 1294 1.24556 389lwdlmjryxnaxygv 1294 101067
gscxwrxifcafp 3790 1.24849 5851fbgdwtfkru 3790 127663
szyktl 5455 1.20368 9898irdwoswgka 5455 108456
ebbdtufrikik 4751 1.20376 2648nbywexrkofatyo 4751 120237
ddwswkbznbadcx 3151 1.21721 4480vazkqkiapfo 3151 115629
rrmihkmkidtclp 1999 1.21765 6554ummbxdbcgraucb 1999 119932
syfuea 7055 1.21902 1330kyeap 7055 126685
qtinor 4175 1.23296 88rmrg 4175 125619
kattojcnwcqxcl 1743 1.24162 9091bjgic 1743 106738
mmcmuza 5199 1.24195 6978agsqdyzc 5199 129577
aojyhttqs 3087 1.24405 9697zhgs 3087 115100
izjq 3663 1.24467 360mbmfhcka 3663 128296
vviji 3728 1.20888 2362imvwryjfgaf 3728 121080
wrlravoxwwux 2192 1.21307 8618wdjusgknawmefymm 2192 127440
fljwpywdd 3408 1.21982 5049widlvgkwi 3408 125917
bykhonkvsk 7504 1.22444 2516bheppuqdumhafl 7504 109850
yshs 4368 1.22943 6702hxmwjslfdfshxazr 4368 101969
tyjzsxn 848 1.23451 6198vdcvrpr 848 122848
nmrigybyps 3024 1.23684 7877djucmyniuajznd 3024 117723
ziiyxfpq 6864 1.23712 6440ybglczvur 6864 116941
nnjooizifnoko 464 1.24047 1328ejyjgrurnyjgpa 464 100194
jcqyjmluta 1808 1.2407 2121tqomflnozo 1808 120888
xjqgnl 6481 1.2027 9718nmuwlhgwufyjp 6481 121138
wnydprj 5585 1.20698 2405pskdrem 5585 121363
txlwmldnsz 4433 1.21726 9934ahxpzwzqar 4433 126948
aqcyorbev 4113 1.21954 7839qurscbhfscrryt 4113 104208
wmidwkcvvjt 6417 1.22082 7145hjfmjts 6417 127606
nvugl 4177 1.23005 4316iekw 4177 111376
asyyp 1617 1.23429 8497cptat 1617 110252
pzuwgchznoquq 9873 1.23468 4068zdgffmr 9873 117182
rylbgdlss 8081 1.23765 1639ophbbh 8081 111593
zvxort 8145 1.24421 2804wsttbqze 8145 113573
xoovrcy 4626 1.20928 4121kavxfbektc 4626 129256
bhxrictecyvcc 4434 1.2103 5627rnhevtabdpkwz 4434 100748
sqnw 2258 1.21382 5541yvpjsiqvtim 2258 111672
aigfguxuaw 3922 1.21722 3314tzvgejzfiejqgmix 3922 101195
oomuerellpgjcl 2130 1.22157 1490fyyxnchxhtpkj 2130 120666
lenvckf 402 1.22276 4669sdmrw 402 116105
cakwbv 1234 1.22322 8156sqdukbucy 1234 120609
rlgvmruxlkp 466 1.2235 6615ekur 466 101364
jzxs 4690 1.22488 1639rjlan 4690 103716
bvju 1426 1.24013 5293zcvdkelwocnoqepa 1426 118631
uadwhfcxaskjid 5458 1.24341 5666pffyfyiecopf 5458 112448
vygqq 9234 1.2445 7657hqqwzmaddisosfji 9234 121575
fztnw 7314 1.247 8490bysdrgxwrgjeitik 7314 121153
eqvzrrksfuyvht 5011 1.2063 8400ornertvgxbvwxi 5011 114218
gmlpy 5331 1.21498 1588qdwpr 5331 100565
ygttvfhdngfgv 211 1.21917 8848tfqdjjnh 211 111827
zcmpfbzkkdrkit 8147 1.22328 4861jvngvqjuomkfaq 8147 110984
hfhdjthfft 5907 1.22478 3760gdhzbbqzhcui 5907 120489
jlkr 4691 1.22726 507glnaabik 4691 101360
bugjjhhtz 1811 1.2291 2728mcvqfwuyghfbbun 1811 122646
kjvavjakfncux 19 1.23177 6963dgjtohimetgcc 19 104978
mnibmlu 3475 1.23714 2091kaegqesek 3475 123850
fmiwrbbarios 9811 1.23784 2064zdclbdjnv 9811 100153
bxbfh 1299 1.24547 3241mcfxx 1299 102270
efpxak 7892 1.2107 897ersheezdruugbqtvx 7892 113224
habzqgjksuddrh 8212 1.21085 1212nuvznsxnjr 8212 112292
aodyvwtdqv 7444 1.21581 1918vppzwfaaspwkxjdu 7444 115022
btzzenupcdneof 7316 1.22034 7010hivdwjdlr 7316 125429
apvketbpmpwqd 7252 1.22423 9471ulnopbxawhso 7252 126358
olcr 3156 1.22734 2278aynpmpwcbvagn 3156 104536
aabzqhvtovfpn 4756 1.22777 6607loam 4756 125616
dnexila 3220 1.22863 6415bnfo 3220 109503
eqrmzfrvosabz 2132 1.22972 5735kizrvbvi 2132 102195
qbvqjjdo 148 1.23512 906pqyvgmpo 148 112890
afgn 788 1.24239 1412zvuz 788 128504
cahkbw 4244 1.24439 9128vqhureijyurxpqsdw 4244 120259
wpbgymynu 8852 1.24443 5093xslml 8852 112911
yqoxxhfvze 4820 1.24488 4480nhzzhjwjyw 4820 117209
yhog 1492 1.24566 807sjekxakss 1492 113722
elwh 2004 1.24815 5809inwysl 2004 104415
bgwzljbcxrj 6420 1.2498 8402grmpeotczwvdeo 6420 106126
ujmtvpdnqc 3029 1.21005 3718ekpag 3029 122663
kkkjhimouww 9621 1.21149 1423zskawlyev 9621 106540
ejtp 7509 1.21773 5970sjhznenbjkgxnw 7509 101201
ygjnwndqmdekg 2389 1.22407 9957unjvdzajck 2389 103557
tcgg 8917 1.22767 6442boaasycvomagqzc 8917 116118
ucfsvuljlzr 1493 1.2285 2745bryrtlt 1493 112611
ndcabtikam 1365 1.23031 3545mjvf 1365 107128
yyqt 853 1.23822 9297bacc 853 101852
lnsyna 9109 1.24057 7057zxhuws 9109 101386
wjjduk 6293 1.24648 381djskitbnwrbwqe 6293 117929
obwblvsj 5461 1.24958 9585flxrhiao 5461 115433
ykznjlogxnus 4757 1.24969 2045qaixqgfrj 4757 101179
mncaemz 8022 1.20157 1600mcadyw 8022 109758
jcveqcru 8918 1.2046 3783anklg 8918 121984
tderfgwgnkgqc 1302 1.20865 3193sqpglrhdolj 1302 101280
jdlf 8150 1.21206 3011ihzgmvqxroikdevl 8150 128274
mpslxohwxphsa 6422 1.21286 9035mucxft 6422 106693
sksmcmdajtvfi 534 1.21677 8001ncuvf 534 123869
denkprlpwwnx 5270 1.21743 6565peumncuq 5270 101817
tqhpzzec 7894 1.21755 6036xnzomtrpztlfzzwz 7894 123115
wnelqhme 150 1.21928 3728rygpsyaxqjjeqrvi 150 124484
coevphxkzmg 8086 1.2224 4069omktoe 8086 101154
krbpfddoi 7510 1.22299 1340bzjyzaox 7510 104858
mdydwpwadimcgx 1686 1.22365 9371bhpjhmygpscr 1686 124182
guemy 1814 1.22766 3250tqava 1814 128768
iimeubldaq 5846 1.23374 7087xdffjystakk 5846 123483
dgffr 4950 1.24093 2047dvhojygtojnm 4950 121416
jvoga 4118 1.2422 5486ozgvaynwzhzbeg 4118 119094
ctexajqf 918 1.24793 5351elgufhkcp 918 126504
xrsieyqcjn 4695 1.20662 746brcm 4695 108346
eanpn 2199 1.24323 1605dvax 2199 101619
fxsogtjhohdnh 7704 1.2019 7048vzgwisj 7704 129873
mnzfinsjgxcx 2840 1.20244 5052udysqtgdedgjx 2840 123245
gahjuum 3992 1.2071 7011qelzxmjuqvjafggc 3992 127624
owunhphud 3608 1.20934 370xjpcnvexb 3608 108871
gtwdltxlirukjg 5528 1.21904 4502xjrimvtjpsvuzyzy 5528 106533
tvcitygruft 8792 1.21912 6677vwbmmxdmas 8792 117591
anvuulesdtli 792 1.21968 2317zhsz 792 107958
tast 5336 1.22327 8054ablvdnbau 5336 104931
evsnothtq 280 1.22939 4506ihjrhmm 280 105032
biyidkeutp 3864 1.23048 881zugwoyrgcw 3864 123847
ezxhmeawm 664 1.23661 5741xygekoiyrihjqn 664 118651
zazvi 5592 1.23956 2853wltfbxesrhsuz 5592 123175
bedeldrshcmbc 4120 1.2425 8939yoqnkxbxqttuxkol 4120 125834
glmeqfj 8600 1.24414 3653zenxbge 8600 120595
lwatuoeyiedsce 6872 1.24565 5523mwzegmoqhtjcqlj 6872 102512
uztcyk 409 1.20341 933dvsh 409 107627
rffshtjish 2585 1.20352 4831yqghqyjjveeuxd 2585 121705
zebyl 6425 1.20522 4002bzmrpfjhc 6425 105967
egfdm 1177 1.20792 1290eqgvweshbuwbmyf 1177 125347
gymvwwznlbys 2457 1.20953 1109wpajerrckbxhvoka 2457 100465
zxvjenmtchwk 3929 1.21239 663ditzq 3929 118318
ttwmvzggczji 153 1.21782 5684hpwmycu 153 119555
ilvweifw 7513 1.2213 5273lpegnkyyfxbsjgxoq 7513 108343
focpgdshat 4121 1.22353 8338lgjrsikhyozkrhgwj 4121 100857
qmqabouyyuc 793 1.22937 5258epgzkcdukmy 793 129337
ivkjxnbb 2073 1.23224 2204fjkfdzzo 2073 120253
dlikzeics 6553 1.2449 2334epff 6553 105706
jnqjawkzuywxto 4505 1.24535 9020bscvcpqvem 4505 111320
orvmirmukt 6873 1.24611 4704lawwkwxdmh 6873 115733
lyqnwjzypdmvo 4697 1.24931 9553ididecilzmqy 4697 122888
tdtupzjwio 1882 1.21029 9482okrqwwoignlmokxs 1882 117226
vevbub 1050 1.2112 5852sztvkbmxlfytcwaz 1050 128765
tpbcicqvdl 6490 1.21164 8877maplzfrkvadlylb 6490 100053
djwsj 794 1.215 1870dwmzfhyvmvds 794 107949
qxcgzhtuxtla 4186 1.2174 4798jtsoml 4186 129447
vslebc 6554 1.21909 433eduxhsbb 6554 117708
rnteiad 2586 1.22449 3706mqre 2586 127283
wuqex 26 1.22787 1836tvit 26 117827
llsyts 346 1.22865 323tlkfeapndiptwrl 346 119426
fkhw 5850 1.23779 8531wqeauzhzq 5850 102118
bmrmbgnhxajt 91 1.20012 2460qauzhlcuy 91 100882
lpjmyb 9755 1.20302 3628mjxmjmvgufzljkyzy 9755 114844
hveywsewly 9051 1.20535 2255vnkxqsnnry 9051 101312
pvrfm 2395 1.21452 4175ekfxeilspjhiknffl 2395 123144
qxnwinwme 7067 1.22067 8271pjarmn 7067 103523
tyyk 7835 1.22135 6353olttuahhykxdqoqei 7835 115275
mtptcsrpmkeo 1819 1.22287 5581fuusvbardpwkbf 1819 128223
hyko 9499 1.22374 7202dzqwmoenqw 9499 129869
kvem 1307 1.22694 2607cpowyjenxdixlpmg 1307 110415
jgautldqrhm 8219 1.22887 9397lqvgabs 8219 102865
cilij 283 1.22928 2323igiz 283 109789
vlieqpnaz 3803 1.23106 7324sbrqdzvullmx 3803 109275
mixmndwdf 9243 1.23215 2221ouslsuudavcflmetz 9243 124370
ybmcqp 7707 1.23354 3002flakczrpbqnjayeds 7707 103684
ysvq 8923 1.23437 4856qwcsafriybr 8923 109515
chjvz 5019 1.23718 8338jagcmujzxay 5019 125898
neooiwcwl 27 1.23981 9278bunthpnp 27 115023
jfjfxpnrebkmc 5979 1.24202 7453sitqocvblp 5979 104047
nacizvqcd 7899 1.24603 255seuz 7899 121754
lsgxpga 7963 1.24827 4825uxrczww 7963 108187
rmqjdcrmwao 2587 1.24984 7441dosqffsbuvvupfd 2587 101401
gnyqpby 7132 1.20004 6873btvkxipeixkaf 7132 103276
zrylybcwbmen 7836 1.20011 8698azmgescqlrtaoyzvc 7836 105416
bpgoubmvcrfrrd 9116 1.20431 2455bucoozqlppqf 9116 112382
ssllifjzther 4444 1.21145 8232mimpjmon 4444 122492
cfarpubrfhyup 860 1.23179 8340xpxslrqbdvizbk 860 108932
syoofefnfca 2332 1.23218 8960gkhtwwnthwruhbsud 2332 129681
fnzgkcmfcwy 2716 1.24194 5680cwcjvozhbm 2716 129001
biss 3100 1.24682 8095becrhgeggqkrydo 3100 129264
skyyfddfz 2973 1.20003 9395vxfhuhromtzcvgzn 2973 114413
grtonwnrmvloga 4765 1.20099 6996shuudbaybmay 4765 103766
lrigvcepayc 4893 1.2024 9138adakkknmqmbmc 4893 121945
qvxzwi 93 1.20243 2900zvifwiax 93 102254
vfevtwpkaxes 3741 1.21761 1027euxssrbusyavjst 3741 100230
bvulfxnvyhcu 3101 1.2181 8873hqmq 3101 100210
wctoe 7837 1.23563 1023fbmrstitlkezrupoo 7837 119406
czklqvrnw 2845 1.23711 4855nxrtlg 2845 115463
ejzabtzycnw 3229 1.24737 8052wtfqntktzlzjxig 3229 107603
uimkqzaqiekgp 2141 1.24754 522nrugmkfvoro 2141 127189
usoyzhvkgclyo 1438 1.20723 3783oabme 1438 129556
czew 2462 1.20903 582bnww 2462 121839
ucmkmaoavd 2142 1.21036 1694gfefidsfpevj 2142 126705
nqtjhh 7710 1.21078 7654vxcaegxyrzgtj 7710 121763
bqxopi 4126 1.21251 4655xfpirnytofmj 4126 112121
uvdoex 7646 1.22708 5395ccfocm 7646 102785
rsdcmpwelvsei 9822 1.22904 9847xhrkcqpdrwkg 9822 108762
nfhbqhbktlnbck 2014 1.2368 6625sjbkagsvnm 2014 125023
fanqy 2526 1.23836 5893dcbpsmlvgzwuu 2526 110199
wimmnkhvjcbr 3486 1.2403 4329vsghzkzhiyhfdnls 3486 114651
toot 8734 1.24075 9365lpeaycmjkweimi 8734 124834
rerqxrmiuwdjf 6814 1.24383 2267khfez 6814 107721
unqxxy 2782 1.24649 6938nttxsopykfb 2782 120538
fcgei 7903 1.20633 2687mvleeglkvbmhklxe 7903 101328
urrnua 6239 1.20725 3432wkbvt 6239 111759
gqemegwsdz 1375 1.21313 9526uowssjpzcbxrpsno 1375 122750
acxbbatvhm 6047 1.21536 4683uhjlozkiazfztct 6047 100434
hlxdmgupbjvu 8287 1.21915 7359lppxa 8287 118035
xtnq 1119 1.22072 8231byoyfthufijve 1119 100289
kuabyiolssgoom 4575 1.22372 9922dkynbnru 4575 122199
mnfpfyzvzmme 671 1.22561 3300gbtlwkcwqpllhocv 671 112181
htmszz 3679 1.22607 7315huxp 3679 106234
wuxlspmn 3039 1.22747 4770yvusmfqveikndgt 3039 101355
zcuoyu 479 1.23235 9559tscn 479 102627
nvrjvcsav 8095 1.23315 329uvbwzpoqrtsmbcm 8095 108275
pylhld 799 1.23366 2144srpetyeznuemie 799 121562
lrkh 2207 1.24068 4730jemiemcmicruqkbd 2207 124271
orcrbhccgqxmi 6815 1.24288 9281ikxumgykw 6815 106321
qdeewhdfugcabx 6943 1.24609 2967bfyzoafldbhgsjkf 6943 103904
fcgei 7903 1.20633 2687mvleeglkvbmhklxe 7903 101328
urrnua 6239 1.20725 3432wkbvt 6239 111759
gqemegwsdz 1375 1.21313 9526uowssjpzcbxrpsno 1375 122750
acxbbatvhm 6047 1.21536 4683uhjlozkiazfztct 6047 100434
hlxdmgupbjvu 8287 1.21915 7359lppxa 8287 118035
xtnq 1119 1.22072 8231byoyfthufijve 1119 100289
kuabyiolssgoom 4575 1.22372 9922dkynbnru 4575 122199
mnfpfyzvzmme 671 1.22561 3300gbtlwkcwqpllhocv 671 112181
htmszz 3679 1.22607 7315huxp 3679 106234
wuxlspmn 3039 1.22747 4770yvusmfqveikndgt 3039 101355
zcuoyu 479 1.23235 9559tscn 479 102627
nvrjvcsav 8095 1.23315 329uvbwzpoqrtsmbcm 8095 108275
pylhld 799 1.23366 2144srpetyeznuemie 799 121562
lrkh 2207 1.24068 4730jemiemcmicruqkbd 2207 124271
orcrbhccgqxmi 6815 1.24288 9281ikxumgykw 6815 106321
qdeewhdfugcabx 6943 1.24609 2967bfyzoafldbhgsjkf 6943 103904
yvdqxqsfrycnq 2592 1.20393 424zmmewicioeug 2592 128233
csqlqlwanc 4576 1.20435 9326mibhfxhojqfmwmjh 4576 127441
furyti 4384 1.21123 1680ltbjqfgpgx 4384 115384
bkqne 5408 1.21282 2142ysceqqpaycusg 5408 104031
voakdn 5280 1.21547 3530sgijsuyiwftstnne 5280 102599
kxoe 6944 1.21673 7469rjcdzwjvkpz 6944 118330
kgmgqa 5536 1.21889 5889ocwyyvolik 5536 122951
psdonofyxmqc 1184 1.23102 1071wart 1184 116565
hcxbqz 7008 1.2486 4368qvkdmwoispaqihjxt 7008 107846
cecvr 1121 1.20342 9103rrifsvfyamxz 1121 109223
sjijpmuaroxs 929 1.20713 1531prholdjup 929 109646
fnqnu 3169 1.21112 845jbffldofbtj 3169 124745
mtxkyr 5729 1.21184 271glbtat 5729 100530
dwczgrgt 7905 1.21295 4361jhufg 7905 123305
ugkzsizilrc 3361 1.21439 422hsvnkgqhtdu 3361 107523
shpzlmfahhprn 289 1.22063 8428cttlcrtahrjkj 289 123390
eppv 5345 1.23015 8081qtpoqvydycitqaaha 5345 119926
zshzfxayr 353 1.23061 8835dcrsprcsuhcywjfcm 353 107727
rudmchgsplcuf 7521 1.23454 5943mltamsct 7521 101584
fpfraohg 6881 1.24169 4601jjepsyf 6881 101417
pzhcopfmm 6433 1.24994 8261zzjfspdbiewsgee 6433 122471
plhcsrhden 4002 1.20163 6488oezefelhj 4002 129011
vumxgqhalfmy 546 1.20292 4411qfuox 546 101110
agkmxrd 9378 1.20383 9117iqyqnqyekjovy 9378 128317
tmboowwub 2466 1.20867 6619zhwymlfkpn 2466 110048
zsgjuqgdcezn 8866 1.21153 3879jgtfdxzegwl 8866 123183
tmrddmaeae 1698 1.21555 2714myaatfqnvygwflo 1698 113476
iwdomensye 5154 1.21578 3984xbfdkfgpoysbauif 5154 115579
kjysqksuapjkdu 1634 1.23108 519ufqayem 1634 118222
ysmlia 9506 1.24044 4349zgzm 9506 109102
ebrgmasskihfp 6050 1.24419 7224cojpzrinqezt 6050 106902
swejvs 5090 1.24655 4307ztlju 5090 101941
yfvasu 2787 1.2018 2619zmpryjap 2787 112008
rufdyhagn 4707 1.20374 1685mmeulnhcrdlrqpics 4707 116828
xwqwdyssfcnja 7843 1.20537 8980tipfbidjuxdkzxdo 7843 114907
njvqwkfhps 5795 1.20964 8807ojvrvzlufdtivf 5795 122532
uiltejbst 8099 1.2113 590ckyaltpwba 8099 110548
pvooe 7971 1.21748 5718svxrhfp 7971 101946
niaewxb 1315 1.22 7800jabkrbvixqvssc 1315 108315
gxqunzgep 7395 1.22369 134gwinprlog 7395 122830
vgfqe 2915 1.23014 3892gtvbmajm 2915 122015
ruqqapq 1123 1.2324 8019onspdtqevzs 1123 115573
jtpsjnkjdc 4323 1.23333 274wyzsaxxlidkqo 4323 119281
xcdyw 5027 1.23852 149dddrxpislwezrzl 5027 101375
ieze 7523 1.23853 3819uxjxotkuykewmb 7523 124129
xdqabbslq 4259 1.23905 3960natbhbgalncay 4259 114835
ltwdz 867 1.24071 330gonbgdiwglpzgiqx 867 125951
uonpa 4900 1.20286 2350lewcgn 4900 106411
btlkcqct 36 1.206 7756svbtp 36 110285
frgfaisonbnus 996 1.20843 4010inldrdbgap 996 117713
exmjunbuxhdwxs 6628 1.21499 2050ddlaxklpmlgcfhf 6628 102388
ipkquky 7396 1.21826 6538sagrpuxwawpqqisv 7396 129235
pigscwtz 8292 1.2186 8070jvwmrvoooszf 8292 104042
xwtaofm 7972 1.22001 9600naxnloxunutq 7972 123101
jiuv 2916 1.22843 9906ybie 2916 128862
opgmgkxczlqk 5540 1.23217 780nlpudqgagl 5540 126835
lbrum 2852 1.23252 3569hpoksypfxjybegnz 2852 102647
tdqgmzxmcbzgnt 612 1.23499 1329qxpyxgra 612 119169
qoxf 3236 1.23569 5560fvwgnacrmhplyv 3236 101555
ymjfvdpivts 3684 1.23642 7076isuokfbrvfpxpmfk 3684 123955
jmmvjjsbpan 1252 1.2376 4806sggtxznuternypqfo 1252 122844
vrmmudfbie 7204 1.23763 2061rxpvd 7204 125269
jkkkhjicu 8548 1.24807 3263cefuetjvvxwh 8548 121505
wxwtgyp 3365 1.20541 5389jsgcqyshogjyaar 3365 111979
cofvoipax 4005 1.21785 2031gkpvbyzperkxuktd 4005 120328
jwtdhqsz 1253 1.22161 2958sblthrid 1253 126434
gzqumeabuawim 9061 1.22206 3666psbom 9061 100073
uwus 6501 1.22275 8306uicpwlyd 6501 117841
xhqblkk 9829 1.22358 132ttulvzkjacfbx 9829 124115
nwtjytvos 9125 1.22627 1787bcjuxflntf 9125 121487
djmbmpyltme 4965 1.23024 3064fjatsmjr 4965 111849
fpivp 5861 1.23326 8599ppkdl 5861 105436
ntxi 805 1.23347 8585qhjjon 805 121300
zfbytaarqumnxs 933 1.23825 2169ziqzebz 933 101596
jljhkovvkvvamk 5605 1.24697 4365pdgmkqagsefia 5605 105808
fqjj 3302 1.20476 6195nwnxjzlhbaqhrkt 3302 103873
xuoqxecfulkj 7014 1.20881 9581mqolm 7014 118875
jjwhnq 7718 1.21234 2697acmdvldp 7718 100462
hcaefhytfk 358 1.21942 2216hmuzzyqqhpwfij 358 107129
miflpwtdbgbmv 4646 1.22041 4917quufzf 4646 121090
xnvvoqknmuemw 294 1.23246 7512psrerleefuadmspfc 294 103916
uogicvpxnszucd 2406 1.23628 8252tcqqbtlvblhmkhff 2406 110904
jgdn 8614 1.23733 2134xkujiir 8614 112187
pzzqiqhpywkpky 5542 1.23868 6742tfjwsmzxch 5542 102487
jdplfmkrxtdfc 6246 1.24033 5569xmmuidmhjkrcezfns 6246 107511
ozrczjuqluck 5735 1.20241 6816mbjaozb 5735 115955
szxsowgs 807 1.20275 9903hoat 807 112759
hpsgwnysis 743 1.20715 4962xhqqlcqvjez 743 120229
oftyjubcyqfxzs 4263 1.20962 8081gfatjn 4263 109487
tmlzehovsoab 6247 1.21479 939zpmp 6247 105204
qlyykrvylqbp 5991 1.21933 80emdgkimeiyq 5991 105831
vaorj 4839 1.23401 8889wvqkthiwv 4839 102059
xhnj 5479 1.23527 5390oynpcqlvtzs 5479 119539
grqgafqbwtvvc 5223 1.24115 8892mwrltoqxg 5223 106618
yzmczsrkyih 4967 1.24447 1350vywhaehhpn 4967 101416
kaxvzbjunoj 5095 1.24583 442mbypbjyvgdfmziip 5095 126443
vxbujjer 2472 1.20598 2239udyfttgebyuwmisvy 2472 100917
bnydv 6248 1.20609 3610ltnqdhqzbv 6248 115536
dztgivoqytyzxm 1960 1.20924 2425sdiqwqwv 1960 113826
kcakhjtdlai 2088 1.21417 8688fgyppfov 2088 118104
xltw 5800 1.21577 38znueknyykkbdsb 5800 111192
jrqvwhk 4008 1.21632 3418yfjwausig 4008 103480
eqsctv 2984 1.21666 1541svzwurx 2984 121970
ibybim 2152 1.22108 2175fgaoroq 2152 110067
gkyk 8360 1.23081 7411djylafalx 8360 102556
xtldcf 1576 1.23105 6171humlcoothbznfqp 1576 119801
erpvorpdi 3432 1.23253 6112bgsvbwp 3432 112844
xneke 8616 1.23432 9846jptyxgodgrkhpevc 8616 119203
jmceqpyxsfe 6120 1.23747 5726kupfdjroebvzfrk 6120 122659
tlirqbwlarflip 5288 1.24803 3535qlxiwm 5288 126303
wqqotktea 5289 1.20238 7350fxbnuwectnvpnc 5289 108472
irjp 1513 1.20263 8840pzgafddsvcqv 1513 112796
nvxgop 4777 1.20724 3948fzblxyydv 4777 108551
bwwqaj 4137 1.21094 3016poitlghplscdqon 4137 119443
dezwkvhj 9705 1.21155 5746hvjxnmbcghboqk 9705 100168
wwzhlxbpl 6825 1.21394 5240ojwmbuhbz 6825 118058
xggoleokubzx 4905 1.21491 3655ptqpeenxp 4905 105268
dribafkzhc 7529 1.21771 5468gksnlxhbbif 7529 126758
xzslinzfmsreii 7657 1.22993 1419bofozpojwmakl 7657 108510
bzzrz 3753 1.23112 3399jrvn 3753 118190
jhhyhpoekg 41 1.23503 4594dnjtrzqafcuqlp 41 117913
nqcm 7209 1.24266 4593ezjjpggoxq 7209 104719
jybxayzy 233 1.24486 8878jjdbkxnpel 233 105686
kaaqujctsnxea 7273 1.24712 190lazjaduofreukue 7273 102676
wqqotktea 5289 1.20238 7350fxbnuwectnvpnc 5289 108472
irjp 1513 1.20263 8840pzgafddsvcqv 1513 112796
nvxgop 4777 1.20724 3948fzblxyydv 4777 108551
bwwqaj 4137 1.21094 3016poitlghplscdqon 4137 119443
dezwkvhj 9705 1.21155 5746hvjxnmbcghboqk 9705 100168
wwzhlxbpl 6825 1.21394 5240ojwmbuhbz 6825 118058
xggoleokubzx 4905 1.21491 3655ptqpeenxp 4905 105268
dribafkzhc 7529 1.21771 5468gksnlxhbbif 7529 126758
xzslinzfmsreii 7657 1.22993 1419bofozpojwmakl 7657 108510
bzzrz 3753 1.23112 3399jrvn 3753 118190
jhhyhpoekg 41 1.23503 4594dnjtrzqafcuqlp 41 117913
nqcm 7209 1.24266 4593ezjjpggoxq 7209 104719
jybxayzy 233 1.24486 8878jjdbkxnpel 233 105686
kaaqujctsnxea 7273 1.24712 190lazjaduofreukue 7273 102676
yyiaoaijr 4650 1.20083 6446lezfwpwlpbkqmlzp 4650 129979
icrxkhwxbj 6186 1.20356 1327dvewqkbnszl 6186 128082
ubafpqhhsqx 8746 1.20682 3240kizngybuzotxw 8746 102257
krpmq 874 1.21027 8944xgvnyiqfrozx 874 106652
jamroilj 7402 1.21343 100lottliyhwdjmpomir 7402 102527
mdiehthdqt 8042 1.23059 700hlzscysifke 8042 112983
qivtjoiklaqn 490 1.2329 9714gzyefiidbdwtiayvf 490 126798
txvghbjn 2730 1.24403 9906hijxnwsirwkcfh 2730 110176
yxihqvvtgzyk 682 1.24659 5699jhgbrwghjnmdbqq 682 110827
suvtddkswpugy 3882 1.24718 1535gutih 3882 117207
knivgvfckmneq 4331 1.20064 6711rwbettmat 4331 119271
ptgrvidxaqt 7403 1.20227 5095hximvmscqixotqldu 7403 102317
hjbrwix 8363 1.21553 8527iuvaakru 8363 117939
hbcrivt 4139 1.2187 1862spqa 4139 110285
bhto 1963 1.22025 6773wtqcotvxq 1963 103545
uiba 3627 1.22248 6528qzxheqvbqdncw 3627 123669
sbfrwu 3243 1.22667 498znvxz 3243 115993
jwieyfjc 1003 1.22763 2891ilbsqaowxdbl 1003 109385
vwgvqaji 1195 1.23617 3440ppxwaadjigdut 1195 102609
klcewqed 7019 1.2391 9780iodqlnooj 7019 114485
kuqqgv 6059 1.24388 7785bmrbasrtoafnl 6059 123646
ndkjkvfvsddb 3499 1.24677 677qhqlefd 3499 116731
torbicofty 9963 1.24725 9144bhgmsz 9963 113946
kwhhzkfvxrff 3563 1.24972 1242egog 3563 110426
hratdzgpnzax 9388 1.20846 214yqisqdikz 9388 125822
exjd 1132 1.21554 661zpdayigrvjejykaj 1132 109722
ofbhsdbrbybas 3244 1.22213 9909vnxfezzxu 3244 106188
zzehcofiumlf 7596 1.22415 6334wgymwdlp 7596 113653
wahj 4844 1.23619 9895ojppwozbhbbx 4844 120474
uqfqfhkdbdiyke 1388 1.2418 4413kcqqyjablfzrixj 1388 126740
fjjpnhkryjjbh 3564 1.24281 538vnftqmgknggnl 3564 120851
sfdmxchxuhbq 2476 1.24375 1988euzzljilmodi 2476 113208
twer 1837 1.20348 6772jpcxmvsddkasmlqoe 1837 113316
hzti 1389 1.20484 142zovjqzdghjiwcs 1389 101827
jslvxuakvs 4013 1.20508 8817aeiemriccjitmc 4013 100041
louedegtte 3949 1.20696 4919ocaoghs 3949 111455
ngvurk 7405 1.21396 4885qolicdu 7405 124520
nftmp 3053 1.22208 3272dhnqprrfjkwaw 3053 101381
njzpvmwwbfoelb 5485 1.22318 782gxyeid 5485 101551
uoafkoyzua 301 1.22443 1546ekilmxiimo 301 106648
jcvc 8685 1.22748 1903isjyjtkhuxuifulnu 8685 100694
zpjzff 1709 1.23207 9205hewlx 1709 121154
esnfblrzgpsow 9453 1.24529 8347vleyg 9453 128962
czdkwwp 9837 1.24751 8450wnlpjuzry 9837 112074
yquktvagvw 3950 1.20406 3471cxqtbok 3950 107547
pigzyrjpd 8942 1.2053 2693rgfnivulldxntv 8942 109860
uznanumcdive 5934 1.20542 1101peirrwzghmktb 5934 100707
dccsmodavkv 9710 1.21141 6012fhmxgnuyni 9710 104693
tzvtxuwjgmnko 5806 1.21215 5657lpiyjlwfkvhwvah 5806 115826
emzydqodcdgiy 1710 1.21617 5559pbukpcjuwzxpf 1710 119914
oqxtnppkcmdxxl 3886 1.22246 1098ajshgzuxu 3886 122974
lbpsybvhxntybv 7278 1.22737 5369mefdqsmndphzxsxcd 7278 127437
orlkergubinij 5102 1.22858 7798cwdhgptwiqf 5102 118588
tbjn 302 1.23168 5715jqjibfapjivfv 302 102368
gjbwphkaeauz 5998 1.2355 1645clwlnrj 5998 109734
cfdjijrbpefqq 5614 1.23843 3702ifqdfqvqials 5614 113694
nbxapl 8238 1.2409 9243nvnefukuhydwas 8238 118536
hpsimxunlyu 9390 1.24252 8267leyeyfmsil 9390 107469
fdpqotyozqd 4526 1.24671 398ahrqem 4526 110542
jqwryhjk 6255 1.20034 9216mkorlydoisxhrwc 6255 114443
gtbjvvnelj 111 1.20877 2549tciuxetdl 111 100990
xnnlhgkqphr 1071 1.2088 2061rgfdgeqhwheid 1071 121196
lsqahev 3119 1.21179 7757tiejriwxdbp 3119 124901
ajipa 6575 1.21735 8523kzbxwt 6575 105021
jtxdkzrqof 1391 1.21819 4859jawyqyvapj 1391 108360
emsp 4335 1.22028 2652fmtiuekgsuvegdqo 4335 110946
mabvpcfe 1775 1.22981 7023nlekyewewovdcodfn 1775 100573
kmcmvllxos 623 1.23851 7369lybbzzuoetpvjhwm 623 125705
iwfkaoe 1199 1.23962 2270tsdfdgiddvof 1199 111434
lfhzklagcmauci 6639 1.24127 741lsqeegxzvsmr 6639 127759
zmrcgiblex 6383 1.24726 7278etyrxmahnithu 6383 124223
yfvapkv 6768 1.2011 2956zhmuvdpzdxeik 6768 114676
utpvlq 3248 1.20242 8586dxpfrylruv 3248 105224
jiqovdpo 3440 1.20462 1008pynhzsqr 3440 126701
qcpg 3056 1.21774 3105tgbjzannesrblc 3056 110036
ppvdbgcjhwr 624 1.22143 9616qczwejipf 624 105869
bbsxnnxfx 3120 1.22522 1127qyup 3120 110112
vswb 4208 1.22743 3360yoqdndfz 4208 122704
qkdpdywsx 1200 1.22984 2681vxztrlm 1200 100658
dopfz 112 1.22991 6656bdikmqtp 112 106259
wyibic 7536 1.23032 1067jnhpuymvd 7536 106161
pgspaxckygf 7984 1.23675 8725ijnyoeorrdkvzup 7984 105169
juunm 304 1.23908 8739rvxxacpijc 304 120968
rpbmucywog 177 1.20291 1545qzcv 177 115255
cjphlk 6769 1.20452 9853zomqbizmv 6769 117569
inldcflwwdq 5169 1.21851 3592mvubunsfsbe 5169 100079
ldcte 4273 1.22339 787cfxpfdjuihpseszzm 4273 109357
bfpqtdclp 9009 1.22917 3294iitjaoisgcdyi 9009 109573
dngkkmfkjxltna 5937 1.23042 5101mfchef 5937 126248
jnlcvszez 9073 1.23134 5208bexsojqgoaahynh 9073 112833
phphiaqncc 7601 1.24324 6432szmkfgumnonvzmp 7601 105131
ugahnlbzmho 561 1.24512 8356gcvfjumagvdj 561 121724
qtglsysieet 6577 1.24536 9743bhskwitkpjpteb 6577 108492
wzmwbfdshiejex 2290 1.20121 5890afaleghvj 2290 119178
zxkmqega 4466 1.20318 8406lneh 4466 108075
xribwcnluuna 1138 1.2067 3262ozlpvds 1138 119557
tmufkm 6834 1.21419 1803dfetplyghrwnobx 6834 120333
fknfijodyewud 2354 1.21634 612ucelwyxwpnmvc 2354 118110
ktchtonxmc 178 1.21668 5514omilrmoaurl 178 121778
lbgkgupuqslz 4210 1.22731 4920xsgvuws 4210 118823
aokb 3250 1.23182 9979wiuwcmc 3250 113079
xsudzxodnz 4402 1.23343 243ttiejnaelihggf 4402 114721
dsjcncspkd 1266 1.23452 8050qtnst 1266 112319
gfmcsgvvve 2866 1.23537 1648mppqf 2866 112274
braizmazcbe 4018 1.2366 1942xuwmftmjpti 4018 128082
bmsswgj 7090 1.24715 2309uwhgmgid 7090 124423
tbysxgqklbf 3635 1.20007 7062amuuxkc 3635 110700
iqgxdspobxahxm 3699 1.20087 809gbwgjiwgdtvyngza 3699 129795
ixpgrluer 5171 1.20498 9698oiwt 5171 102628
oqtsbleoh 6195 1.20911 5713lciiliyuuzz 6195 111075
vduwxskzsdbtf 2931 1.21629 9731acqjvklmbrafrf 2931 115567
liztww 7411 1.21689 3133hfpjfmejckkczvrv 7411 129105
vrczqw 5939 1.2199 8379lzkohfv 5939 102269
ytoahnhmqvch 819 1.22211 6218makjlqhcycwcplk 819 126727
qtaqazffs 1715 1.22217 1135lwhaambvlkfip 1715 102206
gjphar 627 1.23175 521ysqsbiugxlkvdaado 627 102270
fovtfpj 8627 1.23189 4629ycmvmqmlbrjhoy 8627 107809
emrjnvl 6771 1.24299 1806xeakqxuscgslrar 6771 111837
lxxq 1459 1.24652 1655rxbrkkzgiskl 1459 126641
uusujmsrefz 2035 1.24897 356ixunhvdqfik 2035 106204
gvhytlcw 4212 1.20278 8607ghsxjvkvdakr 4212 103053
rvurrneuu 9780 1.20504 6864rxlqynpskddcxxuex 9780 115055
dywvs 6708 1.2051 5206taivsumpsgpost 6708 116405
xyqjbv 6196 1.20536 1189bhwlh 6196 118762
rwsdkn 4724 1.20683 1729gabiirqzhmeqobo 4724 114171
nizgulnf 3508 1.20763 3466qfffsqfm 3508 108979
asdmez 7540 1.20779 3940deyohdhfdqfpq 7540 108719
kpkxb 756 1.20873 6658noqqyaav 756 128318
owewclikero 8564 1.20955 7795qliag 8564 124473
ywssavytvj 3060 1.2151 504zdihxch 3060 113540
aeqgqbncau 6900 1.21656 2970ijkdkbwutvihcvyqp 6900 126880
abscygmayebi 1780 1.21681 902eoig 1780 112289
xghpobdnrl 372 1.22295 8363lyxib 372 104745
fqkuhqpe 8117 1.20215 3094aruu 8117 112924
nfcztfshn 8501 1.20545 2616ibtpkyg 8501 113030
unsttiripjtd 7541 1.22149 983odqjaixbmb 7541 124326
qdpl 9333 1.22348 3169xyqvwocnkmvutm 9333 120122
zkjgiojn 9845 1.22906 8693fyuyhp 9845 105767
hcnixphemenbc 3061 1.23205 853sfwowzqgpitqkuyk 3061 114713
xift 4981 1.23332 2364uhwrlvsikqhckfmb 4981 128614
tfnsqhoh 4213 1.23662 7408iiol 4213 127666
hsdscyyiqa 7797 1.2393 2615weulbznkovekta 7797 121184
aexbnjbjm 9973 1.24461 1076ojselacujnlqklfd 9973 123016
cvcxfxnkebw 4661 1.24515 794yvkjcwkhulcek 4661 122867
zxwwn 821 1.24844 9672zswgnsbvpxwjjoz 821 122798
misptdnpb 6262 1.20717 1152rvakdsqdj 6262 117482
kvhgnfktuci 2998 1.20956 5551xltcpdoe 2998 109405
hvomtruitnufhz 7670 1.22241 2171zzilcxfjcaxaz 7670 120073
tqjrjlnyhkylju 9462 1.22894 3162mohzesvhsdnzznx 9462 125858
uwerpsgwqprvw 4086 1.2295 2270rdvfskqck 4086 125776
zffiirjaeirlad 7606 1.23283 7773meamdqhjrgtsoye 7606 128182
fruornwuag 1526 1.23418 3222vukznoxjvubz 1526 124815
xdjrkyhaqdoblr 4982 1.23595 8160yguxcvnlz 4982 119771
tgambhbkf 8822 1.2454 3110nrignjgfuifekl 8822 126154
uhpllfbrzycpyf 2038 1.24618 5567ccvdevhgcpp 2038 102589
lhtvgy 4406 1.24651 765awsqa 4406 102208
qztga 8055 1.20363 6750aeytnzxvayvon 8055 120024
yckaatzcxfzm 5111 1.20421 3900goqnwfqtrqosxqz 5111 113031
xyynpjtsdptdck 4215 1.20993 5972xkzpu 4215 110202
jnzqximl 5367 1.21551 5314rvgwovldosgzopo 5367 121693
diwsve 9911 1.21556 6333urunbsxp 9911 110687
fwbzinh 4791 1.21661 781kdjg 4791 110558
stdgwhyyucq 5943 1.21772 7254mudhdaptrclnz 5943 123967
uidcgzldkbmwi 6455 1.21815 4832snmqstraml 6455 112549
xzifemeaxwns 1143 1.21881 4519dckmzax 1143 117469
sxqeqndtpgf 8951 1.22336 7439plaifcijgltssndps 8951 107498
kszqbboyivfyb 7415 1.22918 4971idtacdzqsfjjkhbt 7415 118018
zwhlyxkfmmrxnq 3703 1.22922 4276byap 3703 122190
akflhpfxeqa 1847 1.23076 4125lhwl 1847 120920
uvzxdpqtmub 7735 1.24544 1339dabcr 7735 107586
esmypqsy 9719 1.2491 2641erpjogxxt 9719 100113
gyhihzw 3512 1.20065 2355babbamuzi 3512 123831
ygtrssidycj 4600 1.20183 6955hsoarkhtra 4600 123396
dcwnghihtlskni 8248 1.20668 7889dftvj 8248 116439
wtqcqkvesrbuz 9720 1.21058 7310ufgwq 9720 104954
wdbaqbswiov 2040 1.21321 9599iqchk 2040 115947
iiqvu 5816 1.21467 5719pjrliqpwhdsezv 5816 100467
lrlxentf 3000 1.2171 9651vpqbzxgclms 3000 105809
rdvtitazrgm 8760 1.21737 7617rcnwlmcy 8760 122431
lkkidup 2360 1.21997 1391svqydjnmjbojba 2360 101954
bwfskeljatq 6008 1.22833 6538wkuuj 6008 125713
nocmjhtsfvxhrs 5048 1.22919 6925tylqzglmfr 5048 128664
fogs 376 1.23301 6350mawwa 376 113758
cmnwmvv 2488 1.23303 7800djsxhmivkbxp 2488 103333
zdcjnavewjgcvg 3704 1.23464 7808auiqznkywxxidkiu 3704 102064
dxqdtgzdeh 9848 1.23518 4934dbmbgmrgfwzbair 9848 103902
bwdwqbs 3256 1.23541 1541nqsumk 3256 122005
vleow 9400 1.23727 5321xzuchpdizget 9400 127350
rqfjozxougu 3832 1.23794 9352gzbsbzzjoq 3832 108996
mvkbg 1656 1.24072 9750ptkpdimztvvlkv 1656 102239
aftfzmd 7672 1.24155 3940lmglaavqlhzdxle 7672 103850
iqpvrchvxlxe 8376 1.24292 8591xgry 8376 113973
gjfrjlntki 1784 1.24342 5258wpvxvazlqvvgpenon 1784 114609
hbnmkgzcumof 2808 1.24826 8961hraheradnoavu 2808 125739
feungvhnvk 2744 1.24925 4410vrfiepwhieofvvfll 2744 101106
fvapkvozafxr 9273 1.20002 5374kkmbpiaa 9273 108714
phjirxjhwnvaq 2297 1.20282 8303mydumjlvri 2297 126160
jqxxkqckxmpcuu 4601 1.20331 2431waczwfemexiycxrqp 4601 127338
dqqfnqofhgmpm 6969 1.21507 5942iktyq 6969 100976
ygmtpsfmqe 7865 1.22486 1426eyvpwidss 7865 108380
gpsrvbybagwy 1849 1.22608 1565uumnuqg 1849 125631
sczaacjo 8761 1.229 3237nuszp 8761 123844
kttubprtb 4473 1.23053 3880enawzb 4473 110940
ojbdmvbhrtbijp 2425 1.23777 1947ubnvjuyit 2425 110350
gxyhyvdoiit 8889 1.24284 4360rlxgitenwpktqovt 8889 101908
wyraelnl 8505 1.24415 4058rbvvbaoojkj 8505 107357
dpck 8185 1.24507 9142thxr 8185 101070
ffekzocgibvmc 4537 1.24744 4010pnjkagicsrvkrqp 4537 100304
oprddixwwp 5177 1.24748 9300hnhzvhicluhjum 5177 127123
ywmf 6905 1.24786 539qfmf 6905 114589
xencm 9209 1.24951 7495qhacullmxduz 9209 110654
wbqfvyz 9018 1.20251 8107oayfyezjftqnoh 9018 109894
sbeb 186 1.20299 7607ztczg 186 106900
gjhnndqof 8506 1.20557 4653zdwblprfuhefb 8506 124604
vymdewjxtf 5946 1.20957 5161mmxf 5946 120855
fyjfxkhjvf 7482 1.21019 2099yqefmthvwqromhm 7482 100103
rewlusbzzlc 3066 1.21831 9591fjygxzsnvuomozuyp 3066 101200
jqhsecpzo 9850 1.21838 8331cvwy 9850 124791
zwadmb 1466 1.2223 7360kspfbldoyyi 1466 100491
qovlj 1018 1.2253 5808eltczfb 1018 126814
dhwlawcbltpoi 2618 1.23054 8128clogonfrqknltxy 2618 124643
pojlmcykpssyxm 3770 1.23709 2626aflypfjchcruf 3770 119904
yqlw 6778 1.23854 581cflbdgfq 6778 123000
saionfz 8762 1.24944 1329cgwdo 8762 114723
rbpbnzoclhcdmd 3707 1.22619 1106uzxlxnhuyymxcyjcz 3707 128168
cftpsxywlta 8507 1.2266 8751vmpschtih 8507 100905
yovbifnyw 7931 1.2316 8631zpdxyvtpageptqaj 7931 106995
ebhexqudwgar 1979 1.23604 318vbtzclksdgisxcb 1979 118896
hswrtpf 1531 1.24053 7417iaiurxizr 1531 111531
tzlnjsaehjew 6204 1.20145 9040vqkajbdwjqrg 6204 105002
wsivvfdyg 4348 1.20404 1311rbjhte 4348 102202
uuobsjjqzyjfxv 6716 1.2065 7302uxjcjusus 6716 124016
gvgempkby 5116 1.2073 9553unqysdymkrqadrbrw 5116 124919
oxvvwno 188 1.21105 7244qowcrjep 188 100675
ubwvaqnjyoisw 8188 1.21368 3479qmiqwmeglv 8188 101563
tndllwyhxpdf 7740 1.21537 4606hiitykebcfzdt 7740 115351
tkcecfbj 7292 1.21829 8755sinwwqkeeuwbgnw 7292 116463
apvptbydtb 9148 1.22396 1611wpqubnyqewtqtc 9148 100899
qhssfmv 6460 1.2345 9335qzvhkgiq 6460 116717
gltdyyh 2364 1.24172 9100tfqxhcwuqrnkpw 2364 118245
bmeywb 7100 1.24278 5325qlklcrv 7100 115678
sdwtpsykq 8892 1.24781 8385nbnzqavgy 8892 100337
lbwpfymxov 8060 1.24792 8704ilxieg 8060 100503
tccljqukuc 1021 1.21166 5456yujalitswcwkx 1021 126489
tyxpqw 6397 1.22632 4285xmfuhszsd 6397 119149
pwpsn 125 1.2378 6717vjkuqirduxfntnanv 125 105974
scoys 1662 1.20015 3730vxhjpeympor 1662 119855
uehlthrs 2366 1.20202 4558vklazyfvneoszr 2366 126850
nojjsbdnxxvjgy 2622 1.20372 6715fwiqmgfsmzesbyhci 2622 108419
zjrh 3710 1.20447 2280hjwlpchnfvdgamb 3710 119854
rstndcsxfpeu 1150 1.20587 6267cyxmfd 1150 119737
tixjkfcs 1470 1.21087 4406vpebvghwqqemxg 1470 120736
tuubbwccfdvdc 3134 1.21614 7058zlichqzgahcky 3134 111124
tjucdp 8702 1.21974 950ittfqdjhq 8702 119718
zudz 4350 1.22518 7856irvopkdujdvdzxgb 4350 101626
wkhunxue 4478 1.22683 442hlmmiqoaxbho 4478 102656
kxng 1406 1.23247 7260fonpqbnv 1406 125981
nfebopgerfeo 4222 1.23472 2301sqpsaaeahc 4222 115966
fxkvkxaqndixi 9406 1.23533 5209twuenijou 9406 120061
agkekyqjba 3966 1.2364 8611qwrwyqwvvadszo 3966 112578
oroedaaulpvn 5118 1.24621 3610zlkfannhaad 5118 128596
kekvbmzyln 4542 1.24995 3742tgxycergpdxmf 4542 129156
uygknv 3071 1.20283 8794ngetffvb 3071 124408
crmphc 4479 1.22076 3217hyrrsg 4479 101768
qdqngewephrqv 575 1.22611 2366qanlnnvjaxhs 575 106923
llnfyqwq 8767 1.23808 726weeit 8767 110886
ctgmzhhzzoy 7487 1.24104 2443iswwqdvkyko 7487 114875
mctpubvnjkm 3135 1.24764 7691dzorwqacwuuoox 3135 116600
nxeptvxrmnuiwl 5631 1.2499 9190gzbttbpmb 5631 102047
uygknv 3071 1.20283 8794ngetffvb 3071 124408
crmphc 4479 1.22076 3217hyrrsg 4479 101768
qdqngewephrqv 575 1.22611 2366qanlnnvjaxhs 575 106923
llnfyqwq 8767 1.23808 726weeit 8767 110886
ctgmzhhzzoy 7487 1.24104 2443iswwqdvkyko 7487 114875
mctpubvnjkm 3135 1.24764 7691dzorwqacwuuoox 3135 116600
nxeptvxrmnuiwl 5631 1.2499 9190gzbttbpmb 5631 102047
yutknxvuh 5849 100900
abawehenjs 2211 105844
gyhihzw 3512 1.20065 2355babbamuzi 3512 123831
gahjuum 3992 1.2071 7011qelzxmjuqvjafggc 3992 127624
epxvptrqic 8000 1.2074 5162kchxhsftanjkldqj 8000 112550
uztcyk 409 1.20341 933dvsh 409 107627
tjnziglao 137 1.20591 8891lgota 137 114606
wnydprj 5585 1.20698 2405pskdrem 5585 121363
egfdm 1177 1.20792 1290eqgvweshbuwbmyf 1177 125347
wbqfvyz 9018 1.20251 8107oayfyezjftqnoh 9018 109894
vumxgqhalfmy 546 1.20292 4411qfuox 546 101110
sbeb 186 1.20299 7607ztczg 186 106900
zxkmqega 4466 1.20318 8406lneh 4466 108075
icrxkhwxbj 6186 1.20356 1327dvewqkbnszl 6186 128082
mchfobuiiagt 8267 1.20274 8762wdxafedkbdge 8267 123986
oqtsbleoh 6195 1.20911 5713lciiliyuuzz 6195 111075
gvwvkgxmzm 9739 1.20958 8225gkwqxyoyvvn 9739 103584
njvqwkfhps 5795 1.20964 8807ojvrvzlufdtivf 5795 122532
tzlnjsaehjew 6204 1.20145 9040vqkajbdwjqrg 6204 105002
uonpa 4900 1.20286 2350lewcgn 4900 106411
bpgoubmvcrfrrd 9116 1.20431 2455bucoozqlppqf 9116 112382
xyqjbv 6196 1.20536 1189bhwlh 6196 118762
frgfaisonbnus 996 1.20843 4010inldrdbgap 996 117713
kpkxb 756 1.20873 6658noqqyaav 756 128318
skyyfddfz 2973 1.20003 9395vxfhuhromtzcvgzn 2973 114413
jslvxuakvs 4013 1.20508 8817aeiemriccjitmc 4013 100041
nfcztfshn 8501 1.20545 2616ibtpkyg 8501 113030
mncaemz 8022 1.20157 1600mcadyw 8022 109758
lopwxepcer 2822 1.20346 4686kaqxbfyfy 2822 118786
xuoqxecfulkj 7014 1.20881 9581mqolm 7014 118875
lwjtipefbd 1543 1.20257 4139ffttqgojegdegm 1543 112529
qztga 8055 1.20363 6750aeytnzxvayvon 8055 120024
yckaatzcxfzm 5111 1.20421 3900goqnwfqtrqosxqz 5111 113031
gyhihzw 3512 1.20065 2355babbamuzi 3512 123831
gahjuum 3992 1.2071 7011qelzxmjuqvjafggc 3992 127624
epxvptrqic 8000 1.2074 5162kchxhsftanjkldqj 8000 112550
uztcyk 409 1.20341 933dvsh 409 107627
tjnziglao 137 1.20591 8891lgota 137 114606
wnydprj 5585 1.20698 2405pskdrem 5585 121363
egfdm 1177 1.20792 1290eqgvweshbuwbmyf 1177 125347
wbqfvyz 9018 1.20251 8107oayfyezjftqnoh 9018 109894
vumxgqhalfmy 546 1.20292 4411qfuox 546 101110
sbeb 186 1.20299 7607ztczg 186 106900
zxkmqega 4466 1.20318 8406lneh 4466 108075
icrxkhwxbj 6186 1.20356 1327dvewqkbnszl 6186 128082
mchfobuiiagt 8267 1.20274 8762wdxafedkbdge 8267 123986
oqtsbleoh 6195 1.20911 5713lciiliyuuzz 6195 111075
gvwvkgxmzm 9739 1.20958 8225gkwqxyoyvvn 9739 103584
njvqwkfhps 5795 1.20964 8807ojvrvzlufdtivf 5795 122532
tzlnjsaehjew 6204 1.20145 9040vqkajbdwjqrg 6204 105002
uonpa 4900 1.20286 2350lewcgn 4900 106411
bpgoubmvcrfrrd 9116 1.20431 2455bucoozqlppqf 9116 112382
xyqjbv 6196 1.20536 1189bhwlh 6196 118762
frgfaisonbnus 996 1.20843 4010inldrdbgap 996 117713
kpkxb 756 1.20873 6658noqqyaav 756 128318
skyyfddfz 2973 1.20003 9395vxfhuhromtzcvgzn 2973 114413
jslvxuakvs 4013 1.20508 8817aeiemriccjitmc 4013 100041
nfcztfshn 8501 1.20545 2616ibtpkyg 8501 113030
scoys 1662 1.20015 3730vxhjpeympor 1662 119855
fcgei 7903 1.20633 2687mvleeglkvbmhklxe 7903 101328
